EDA
…
GenBox <- Cleaning1|>
  group_by(Diabetes_binary)|>
  pivot_longer(col = c(Age,Education,Income),names_to = "Category", values_to = "level")|>
  count(Diabetes_binary,Category,level,name = "val")

GenBox

# A tibble: 54 × 4
# Groups:   Diabetes_binary [2]
   Diabetes_binary Category level   val
   <fct>           <chr>    <dbl> <int>
 1 0               Age          1  5622
 2 0               Age          2  7458
 3 0               Age          3 10809
 4 0               Age          4 13197
 5 0               Age          5 15106
 6 0               Age          6 18077
 7 0               Age          7 23226
 8 0               Age          8 26569
 9 0               Age          9 27511
10 0               Age         10 25636
# ℹ 44 more rows
…
