Modeling
…
# Best Forest = range

Final Model selection

  In this final section we take the best models from above and compare them to see which is the overall best model. We do this be comparing the lowest logloss from the three models when they are predicting on the test data set. Since we have already trained all three models we will use the predict function to predict the results of the test set. We will then look at the logloss of each model and select the lowest logloss as our best model. After comparing our models we find that Random Forest is our best model.

bayesGLMPredict<- predict(Diabetes_logFit2,
                          newdata = diabetesTest,
                          type = "prob")|>
  as_tibble()
bayesGLMPredict

# A tibble: 76,103 × 2
      No    Yes
   <dbl>  <dbl>
 1 0.961 0.0387
 2 0.697 0.303 
 3 0.745 0.255 
 4 0.942 0.0579
 5 0.977 0.0227
 6 0.957 0.0433
 7 0.472 0.528 
 8 0.775 0.225 
 9 0.980 0.0203
10 0.934 0.0660
# ℹ 76,093 more rows

cart_TreePredict<-predict(cart_TreeFit,
                          newdata = diabetesTest,
                          type = "prob")|>
  as_tibble()

cart_TreePredict

# A tibble: 76,103 × 2
      No    Yes
   <dbl>  <dbl>
 1 0.960 0.0399
 2 0.812 0.188 
 3 0.812 0.188 
 4 0.960 0.0399
 5 0.960 0.0399
 6 0.960 0.0399
 7 0.610 0.390 
 8 0.776 0.224 
 9 0.960 0.0399
10 0.960 0.0399
# ℹ 76,093 more rows

rf_Pred<-predict(rf_Fit,
                 newdata = diabetesTest,
                 type = "prob")|>
  as_tibble()

rf_Pred

# A tibble: 76,103 × 2
      No    Yes
   <dbl>  <dbl>
 1 0.951 0.0489
 2 0.725 0.275 
 3 0.726 0.274 
 4 0.948 0.0518
 5 0.954 0.0459
 6 0.943 0.0569
 7 0.626 0.374 
 8 0.798 0.202 
 9 0.948 0.0518
10 0.943 0.0569
# ℹ 76,093 more rows
…
